id;name;code
1;Abia;AB
37;Abuja;FCT
2;Adamawa;AD
3;Akwa Ibom;AK
4;Anambra;AN
5;Bauchi;BA
6;Bayelsa;BY
7;Benue;BE
8;Borno;BO
9;Cross River;CR
10;Delta;DT
11;Ebonyi;EB
12;Edo;ED
13;Ekiti;EK
36;Enugu;EN
14;Gombe;GO
15;Imo;IM
16;Jigawa;JG
17;Kaduna;KD
18;Kano;KN
19;Katsina;KT
20;Kebbi;KB
21;Kogi;KG
22;Kwara;KW
23;Lagos;LA
24;Nasarawa;NA
25;Niger;NI
26;Ogun;OG
27;Ondo;OD
28;Osun;OS
29;Oyo;OY
30;Plateau;PL
31;Rivers;RV
32;Sokoto;SO
33;Taraba;TA
34;Yobe;YO
35;Zamfara;ZA

